…
library(dplyr)
welfare %>%
  select(1:10)
#> # A tibble: 15,422 x 10
#>    h12_id h12_ind h12_sn h12_merkey h_new h12_cobf p12_wgl p12_wsl p12_wgc
#>     <dbl>   <dbl>  <dbl>      <dbl> <dbl>    <dbl>   <dbl>   <dbl>   <dbl>
#>  1      1       1      1      10101     0       NA    953.   0.287    948.
#>  2      2       1      1      20101     0       NA   1239.   0.373   1239.
#>  3      3       1      1      30101     0       NA   1282.   0.386   1282.
#>  4      4       1      1      40101     0       NA   1066.   0.321   1066.
#>  5      4       1      1      40101     0       NA   1391.   0.418   1383.
#>  6      6       1      1      60101     0       NA   2348.   0.706   2322.
#>  7      6       1      1      60101     0       NA   2726.   0.820   2702.
#>  8      6       1      1      60101     0       NA   1761.   0.530   1714.
#>  9      6       1      1      60101     0       NA    910.   0.274    908.
#> 10      6       1      1      60101     0       NA   1025.   0.308   1019.
#> # ... with 15,412 more rows, and 1 more variable: p12_wsc <dbl>
```
…
